<?xml version="1.0" encoding="utf-8"?>
<!-- Generator: Adobe Illustrator 22.0.1, SVG Export Plug-In . SVG Version: 6.00 Build 0)  -->
<svg version="1.1" id="Layer_1" xmlns="http://www.w3.org/2000/svg" xmlns:xlink="http://www.w3.org/1999/xlink" x="0px" y="0px"
	 viewBox="0 0 150 150" style="enable-background:new 0 0 150 150;" xml:space="preserve">
<style type="text/css">
	.st0{clip-path:url(#SVGID_2_);}
	.st1{opacity:5.000000e-02;}
	.st2{fill:#95CB7A;}
</style>
<g>
	<g>
		<defs>
			
				<rect id="SVGID_1_" x="20.2" y="35.7" transform="matrix(0.4058 -0.914 0.914 0.4058 -20.4648 118.8001)" width="122" height="78.8"/>
		</defs>
		<clipPath id="SVGID_2_">
			<use xlink:href="#SVGID_1_"  style="overflow:visible;"/>
		</clipPath>
		<path class="st0" d="M94.2,129.3"/>
	</g>
</g>
<g>
	<g class="st1">
		<path d="M134.4,106.3c1.2,3.7,0.6,6-2.7,8.1c-1.8,1.2-4,2-6.1,3.1c0,2-0.6,3.9-2.9,4.5c0.1,1.3,0.5,2.6,0.3,3.8
			c-0.4,1.7-2,2.5-3.5,3.1c-1.3,0.5-2.7,0.9-4,1.4c0.3,3.3-2.2,5-5.4,3.7c-0.6-0.2-1.3-0.2-2-0.3c-2-0.3-2.9-1.3-3.1-3.3
			c-0.1-1.2-0.3-2.4-0.5-3.5c-0.3-2.1,0.9-3.5,2.1-4.9c-0.2-0.5-0.4-1.1-0.7-1.7c-4.6,2-9.4,1.6-14.2,1.3c-1.4-0.1-2.7-0.3-4-0.6
			c-3.3-0.8-5.8-2.9-7-6.1c-0.7-1.7-1-3.6-1.5-5.3c-0.3-1.1-0.6-2.3-1.2-3.3c-1.5-2.4-5.1-2.5-6.6-0.1c-0.6,0.9-0.9,2-1.2,3.1
			c-0.4,1.4-0.6,2.8-1,4.1c-1.4,4.5-4.5,7.4-9.2,7.8c-4,0.4-8,0.3-12,0.3c-1.4,0-2.7-0.6-4.2-1c-0.2,0.4-0.4,0.8-0.5,1.1
			c0.7,1.4,1.8,2.5,1.9,3.7c0.1,2.2-0.4,4.4-0.7,6.5c-0.1,0.4-0.5,1-0.9,1.1c-2.1,0.5-4.3,1.3-6.4,1.3c-2.2,0-3.1-1.8-2.7-3.9
			c-1.6-0.6-3.3-1-4.8-1.8c-3.2-1.6-3.7-3.2-2.2-6.5c-2.6-0.6-3.3-2.6-3.3-5c-2.7-0.5-5.1-1.5-7.1-3.4c-2.4-2.2-2.8-4.2-1.6-7.3
			c-2.9-1.1-5.2-2.7-4.6-6.4c-3.7-0.9-6.2-3.3-7.8-6.7c-1.6-3.3-1.9-6.7,0-10.1c-2.1-1.3-3.6-2.9-2.9-5.5c0.6-2.1,1.9-3.5,4.3-3.8
			c-1.5-3-2.3-6.2-2.2-9.5c0.1-3,0.9-5.6,4.2-6.8c-0.9-1.7-1.1-3.4-0.7-5.2c0.4-1.8,1.2-3.4,3-4.2c-1.7-6.6,1.9-10.3,10-10.5
			c0.9-6.9,1.7-7.9,6.2-8.3c0.1-3.3,1.1-4.3,5.9-5.4c0.3-4.4,2.8-6.6,7.6-6.7c1,0,2,0.1,3.1,0.2c1.5-3.6,4.4-4.9,7.6-3.7
			c3.3-2.3,6.6-1.6,10.1-0.4c1.4-2.3,3.4-3.9,6.2-4.4c2.7-0.4,5.2,0.4,7.6,1.5c1.4-1.8,2.9-2.7,6.2,0.1c5.8-2.1,8.2-1.5,11.5,2.7
			c3.4-0.8,6.5-0.7,9,2c0.2,0.2,0.8,0.2,1.2,0.2c2.4,0,4.8,0.3,6.8,1.7c0.3,0.2,0.9,0.2,1.3,0.1c2.5-0.4,4.9-0.1,7.1,1.2
			c2,1.1,3.3,2.8,2.8,5.1c1.2,0.7,2.6,1.2,3.3,2.1c0.7,0.9,0.6,2.4,0.9,3.8c3.2,0.9,3.6,1.5,4,7.1c3.6-0.4,7.2-0.2,9.6,3
			c2.4,3.1,2.6,6.5,1.2,10.2c1.9,0.4,3.4,1.2,4.1,3.1c0.7,1.8,0.4,3.4-0.7,5.1c3.5,0.9,5.9,2.9,6.4,6.6c0.4,3.3-0.5,6.4-2.3,9.3
			c2.4,0.4,3.8,1.9,4.3,4.1c0.5,2.5-1,4-2.9,5.2c2.7,7.7-0.2,13.9-7.9,16.9C139.5,103.5,137.4,105.3,134.4,106.3z M46.2,96.1
			c7.5-0.2,14.5,0.5,21.4,2c6.1,1.4,12.2,0.7,18.3-0.8c3.3-0.8,6.8-0.7,10.3-1c2.4-0.2,4.8-0.2,7.2-0.3c-1.5-2.2-2.7-4.1-2-6.6
			C98.8,89,98.2,88,98.6,85c-4.1,0-6.1-2.5-7.1-6.2c-3.1,0.3-5.6-1.1-7.7-3.3c-2.5,2.6-5.6,3-8.8,3c-3.2,0-6.3-0.4-8.7-3
			c-2.1,2.3-4.6,3.5-7.7,3.3c-1,3.7-3,6.2-7.1,6.2c0.3,3.1-0.3,4-2.9,4.4C49.2,92,48.4,94.1,46.2,96.1z M54.6,119.5c0,0,0-0.1,0-0.1
			c1.1-0.1,2.2-0.1,3.4-0.2c4.2-0.3,7.2-2.3,8.6-6.3c0.8-2.3,1.4-4.7,1.7-7.1c0.4-3.4-0.8-5.1-4.1-5.9c-6.3-1.5-12.7-2.1-19.1-1.5
			c-3,0.3-4.9,2-5,4.9c-0.1,2.8,0.2,5.7,0.9,8.5c1.1,4.4,4.2,6.8,8.7,7.3C51.3,119.4,52.9,119.4,54.6,119.5z M100.7,98.3
			c-2.8,0.1-5.4,0.2-8,0.5c-2.7,0.3-5.3,0.7-7.9,1.4c-2.7,0.7-4,2.4-3.6,5.2c0.4,2.8,1.1,5.6,2,8.3c1.1,3.1,3.6,5.1,6.9,5.4
			c3.5,0.3,7,0.4,10.5,0c3.9-0.4,6.7-2.8,7.8-6.6c0.7-2.4,1.1-5,1.2-7.6c0.1-3.3-1.5-5.5-4.4-6.3C103.7,98.2,102.1,98.4,100.7,98.3z
			"/>
		<path d="M134.4,106.3c1.2,3.7,0.6,6-2.7,8.1c-1.8,1.2-4,2-6.1,3.1c0,2-0.6,3.9-2.9,4.5c0.1,1.3,0.5,2.6,0.3,3.8
			c-0.4,1.7-2,2.5-3.5,3.1c-1.3,0.5-2.7,0.9-4,1.4c0.3,3.3-2.2,5-5.4,3.7c-0.6-0.2-1.3-0.2-2-0.3c-2-0.3-2.9-1.3-3.1-3.3
			c-0.1-1.2-0.3-2.4-0.5-3.5c-0.3-2.1,0.9-3.5,2.1-4.9c-0.2-0.5-0.4-1.1-0.7-1.7c-4.6,2-9.4,1.6-14.2,1.3c-1.4-0.1-2.7-0.3-4-0.6
			c-3.3-0.8-5.8-2.9-7-6.1c-0.7-1.7-1-3.6-1.5-5.3c-0.3-1.1-0.6-2.3-1.2-3.3c-1.5-2.4-5.1-2.5-6.6-0.1c-0.6,0.9-0.9,2-1.2,3.1
			c-0.4,1.4-0.6,2.8-1,4.1c-1.4,4.5-4.5,7.4-9.2,7.8c-4,0.4-8,0.3-12,0.3c-1.4,0-2.7-0.6-4.2-1c-0.2,0.4-0.4,0.8-0.5,1.1
			c0.7,1.4,1.8,2.5,1.9,3.7c0.1,2.2-0.4,4.4-0.7,6.5c-0.1,0.4-0.5,1-0.9,1.1c-2.1,0.5-4.3,1.3-6.4,1.3c-2.2,0-3.1-1.8-2.7-3.9
			c-1.6-0.6-3.3-1-4.8-1.8c-3.2-1.6-3.7-3.2-2.2-6.5c-2.6-0.6-3.3-2.6-3.3-5c-2.7-0.5-5.1-1.5-7.1-3.4c-2.4-2.2-2.8-4.2-1.6-7.3
			c-2.9-1.1-5.2-2.7-4.6-6.4c-3.7-0.9-6.2-3.3-7.8-6.7c-1.6-3.3-1.9-6.7,0-10.1c-2.1-1.3-3.6-2.9-2.9-5.5c0.6-2.1,1.9-3.5,4.3-3.8
			c-1.5-3-2.3-6.2-2.2-9.5c0.1-3,0.9-5.6,4.2-6.8c-0.9-1.7-1.1-3.4-0.7-5.2c0.4-1.8,1.2-3.4,3-4.2c-1.7-6.6,1.9-10.3,10-10.5
			c0.9-6.9,1.7-7.9,6.2-8.3c0.1-3.3,1.1-4.3,5.9-5.4c0.3-4.4,2.8-6.6,7.6-6.7c1,0,2,0.1,3.1,0.2c1.5-3.6,4.4-4.9,7.6-3.7
			c3.3-2.3,6.6-1.6,10.1-0.4c1.4-2.3,3.4-3.9,6.2-4.4c2.7-0.4,5.2,0.4,7.6,1.5c1.4-1.8,2.9-2.7,6.2,0.1c5.8-2.1,8.2-1.5,11.5,2.7
			c3.4-0.8,6.5-0.7,9,2c0.2,0.2,0.8,0.2,1.2,0.2c2.4,0,4.8,0.3,6.8,1.7c0.3,0.2,0.9,0.2,1.3,0.1c2.5-0.4,4.9-0.1,7.1,1.2
			c2,1.1,3.3,2.8,2.8,5.1c1.2,0.7,2.6,1.2,3.3,2.1c0.7,0.9,0.6,2.4,0.9,3.8c3.2,0.9,3.6,1.5,4,7.1c3.6-0.4,7.2-0.2,9.6,3
			c2.4,3.1,2.6,6.5,1.2,10.2c1.9,0.4,3.4,1.2,4.1,3.1c0.7,1.8,0.4,3.4-0.7,5.1c3.5,0.9,5.9,2.9,6.4,6.6c0.4,3.3-0.5,6.4-2.3,9.3
			c2.4,0.4,3.8,1.9,4.3,4.1c0.5,2.5-1,4-2.9,5.2c2.7,7.7-0.2,13.9-7.9,16.9C139.5,103.5,137.4,105.3,134.4,106.3z M46.2,96.1
			c7.5-0.2,14.5,0.5,21.4,2c6.1,1.4,12.2,0.7,18.3-0.8c3.3-0.8,6.8-0.7,10.3-1c2.4-0.2,4.8-0.2,7.2-0.3c-1.5-2.2-2.7-4.1-2-6.6
			C98.8,89,98.2,88,98.6,85c-4.1,0-6.1-2.5-7.1-6.2c-3.1,0.3-5.6-1.1-7.7-3.3c-2.5,2.6-5.6,3-8.8,3c-3.2,0-6.3-0.4-8.7-3
			c-2.1,2.3-4.6,3.5-7.7,3.3c-1,3.7-3,6.2-7.1,6.2c0.3,3.1-0.3,4-2.9,4.4C49.2,92,48.4,94.1,46.2,96.1z M54.6,119.5c0,0,0-0.1,0-0.1
			c1.1-0.1,2.2-0.1,3.4-0.2c4.2-0.3,7.2-2.3,8.6-6.3c0.8-2.3,1.4-4.7,1.7-7.1c0.4-3.4-0.8-5.1-4.1-5.9c-6.3-1.5-12.7-2.1-19.1-1.5
			c-3,0.3-4.9,2-5,4.9c-0.1,2.8,0.2,5.7,0.9,8.5c1.1,4.4,4.2,6.8,8.7,7.3C51.3,119.4,52.9,119.4,54.6,119.5z M100.7,98.3
			c-2.8,0.1-5.4,0.2-8,0.5c-2.7,0.3-5.3,0.7-7.9,1.4c-2.7,0.7-4,2.4-3.6,5.2c0.4,2.8,1.1,5.6,2,8.3c1.1,3.1,3.6,5.1,6.9,5.4
			c3.5,0.3,7,0.4,10.5,0c3.9-0.4,6.7-2.8,7.8-6.6c0.7-2.4,1.1-5,1.2-7.6c0.1-3.3-1.5-5.5-4.4-6.3C103.7,98.2,102.1,98.4,100.7,98.3z
			"/>
	</g>
	<g>
		<g>
			<path class="st2" d="M134.4,107.3c1.2,3.7,0.6,6-2.7,8.1c-1.8,1.2-4,2-6.1,3.1c0,2-0.6,3.9-2.9,4.5c0.1,1.3,0.5,2.6,0.3,3.8
				c-0.4,1.7-2,2.5-3.5,3.1c-1.3,0.5-2.7,0.9-4,1.4c0.3,3.3-2.2,5-5.4,3.7c-0.6-0.2-1.3-0.2-2-0.3c-2-0.3-2.9-1.3-3.1-3.3
				c-0.1-1.2-0.3-2.4-0.5-3.5c-0.3-2.1,0.9-3.5,2.1-4.9c-0.2-0.5-0.4-1.1-0.7-1.7c-4.6,2-9.4,1.6-14.2,1.3c-1.4-0.1-2.7-0.3-4-0.6
				c-3.3-0.8-5.8-2.9-7-6.1c-0.7-1.7-1-3.6-1.5-5.3c-0.3-1.1-0.6-2.3-1.2-3.3c-1.5-2.4-5.1-2.5-6.6-0.1c-0.6,0.9-0.9,2-1.2,3.1
				c-0.4,1.4-0.6,2.8-1,4.1c-1.4,4.5-4.5,7.4-9.2,7.8c-4,0.4-8,0.3-12,0.3c-1.4,0-2.7-0.6-4.2-1c-0.2,0.4-0.4,0.8-0.5,1.1
				c0.7,1.4,1.8,2.5,1.9,3.7c0.1,2.2-0.4,4.4-0.7,6.5c-0.1,0.4-0.5,1-0.9,1.1c-2.1,0.5-4.3,1.3-6.4,1.3c-2.2,0-3.1-1.8-2.7-3.9
				c-1.6-0.6-3.3-1-4.8-1.8c-3.2-1.6-3.7-3.2-2.2-6.5c-2.6-0.6-3.3-2.6-3.3-5c-2.7-0.5-5.1-1.5-7.1-3.4c-2.4-2.2-2.8-4.2-1.6-7.3
				c-2.9-1.1-5.2-2.7-4.6-6.4c-3.7-0.9-6.2-3.3-7.8-6.7c-1.6-3.3-1.9-6.7,0-10.1c-2.1-1.3-3.6-2.9-2.9-5.5c0.6-2.1,1.9-3.5,4.3-3.8
				c-1.5-3-2.3-6.2-2.2-9.5c0.1-3,0.9-5.6,4.2-6.8c-0.9-1.7-1.1-3.4-0.7-5.2c0.4-1.8,1.2-3.4,3-4.2c-1.7-6.6,1.9-10.3,10-10.5
				c0.9-6.9,1.7-7.9,6.2-8.3c0.1-3.3,1.1-4.3,5.9-5.4c0.3-4.4,2.8-6.6,7.6-6.7c1,0,2,0.1,3.1,0.2c1.5-3.6,4.4-4.9,7.6-3.7
				c3.3-2.3,6.6-1.6,10.1-0.4c1.4-2.3,3.4-3.9,6.2-4.4c2.7-0.4,5.2,0.4,7.6,1.5c1.4-1.8,2.9-2.7,6.2,0.1c5.8-2.1,8.2-1.5,11.5,2.7
				c3.4-0.8,6.5-0.7,9,2c0.2,0.2,0.8,0.2,1.2,0.2c2.4,0,4.8,0.3,6.8,1.7c0.3,0.2,0.9,0.2,1.3,0.1c2.5-0.4,4.9-0.1,7.1,1.2
				c2,1.1,3.3,2.8,2.8,5.1c1.2,0.7,2.6,1.2,3.3,2.1c0.7,0.9,0.6,2.4,0.9,3.8c3.2,0.9,3.6,1.5,4,7.1c3.6-0.4,7.2-0.2,9.6,3
				c2.4,3.1,2.6,6.5,1.2,10.2c1.9,0.4,3.4,1.2,4.1,3.1c0.7,1.8,0.4,3.4-0.7,5.1c3.5,0.9,5.9,2.9,6.4,6.6c0.4,3.3-0.5,6.4-2.3,9.3
				c2.4,0.4,3.8,1.9,4.3,4.1c0.5,2.5-1,4-2.9,5.2c2.7,7.7-0.2,13.9-7.9,16.9C139.5,104.5,137.4,106.3,134.4,107.3z M46.2,97.1
				c7.5-0.2,14.5,0.5,21.4,2c6.1,1.4,12.2,0.7,18.3-0.8c3.3-0.8,6.8-0.7,10.3-1c2.4-0.2,4.8-0.2,7.2-0.3c-1.5-2.2-2.7-4.1-2-6.6
				C98.8,90,98.2,89,98.6,86c-4.1,0-6.1-2.5-7.1-6.2c-3.1,0.3-5.6-1.1-7.7-3.3c-2.5,2.6-5.6,3-8.8,3c-3.2,0-6.3-0.4-8.7-3
				c-2.1,2.3-4.6,3.5-7.7,3.3c-1,3.7-3,6.2-7.1,6.2c0.3,3.1-0.3,4-2.9,4.4C49.2,93,48.4,95.1,46.2,97.1z M54.6,120.5
				c0,0,0-0.1,0-0.1c1.1-0.1,2.2-0.1,3.4-0.2c4.2-0.3,7.2-2.3,8.6-6.3c0.8-2.3,1.4-4.7,1.7-7.1c0.4-3.4-0.8-5.1-4.1-5.9
				c-6.3-1.5-12.7-2.1-19.1-1.5c-3,0.3-4.9,2-5,4.9c-0.1,2.8,0.2,5.7,0.9,8.5c1.1,4.4,4.2,6.8,8.7,7.3
				C51.3,120.4,52.9,120.4,54.6,120.5z M100.7,99.3c-2.8,0.1-5.4,0.2-8,0.5c-2.7,0.3-5.3,0.7-7.9,1.4c-2.7,0.7-4,2.4-3.6,5.2
				c0.4,2.8,1.1,5.6,2,8.3c1.1,3.1,3.6,5.1,6.9,5.4c3.5,0.3,7,0.4,10.5,0c3.9-0.4,6.7-2.8,7.8-6.6c0.7-2.4,1.1-5,1.2-7.6
				c0.1-3.3-1.5-5.5-4.4-6.3C103.7,99.2,102.1,99.4,100.7,99.3z"/>
		</g>
		<g>
			<path class="st2" d="M134.4,107.3c1.2,3.7,0.6,6-2.7,8.1c-1.8,1.2-4,2-6.1,3.1c0,2-0.6,3.9-2.9,4.5c0.1,1.3,0.5,2.6,0.3,3.8
				c-0.4,1.7-2,2.5-3.5,3.1c-1.3,0.5-2.7,0.9-4,1.4c0.3,3.3-2.2,5-5.4,3.7c-0.6-0.2-1.3-0.2-2-0.3c-2-0.3-2.9-1.3-3.1-3.3
				c-0.1-1.2-0.3-2.4-0.5-3.5c-0.3-2.1,0.9-3.5,2.1-4.9c-0.2-0.5-0.4-1.1-0.7-1.7c-4.6,2-9.4,1.6-14.2,1.3c-1.4-0.1-2.7-0.3-4-0.6
				c-3.3-0.8-5.8-2.9-7-6.1c-0.7-1.7-1-3.6-1.5-5.3c-0.3-1.1-0.6-2.3-1.2-3.3c-1.5-2.4-5.1-2.5-6.6-0.1c-0.6,0.9-0.9,2-1.2,3.1
				c-0.4,1.4-0.6,2.8-1,4.1c-1.4,4.5-4.5,7.4-9.2,7.8c-4,0.4-8,0.3-12,0.3c-1.4,0-2.7-0.6-4.2-1c-0.2,0.4-0.4,0.8-0.5,1.1
				c0.7,1.4,1.8,2.5,1.9,3.7c0.1,2.2-0.4,4.4-0.7,6.5c-0.1,0.4-0.5,1-0.9,1.1c-2.1,0.5-4.3,1.3-6.4,1.3c-2.2,0-3.1-1.8-2.7-3.9
				c-1.6-0.6-3.3-1-4.8-1.8c-3.2-1.6-3.7-3.2-2.2-6.5c-2.6-0.6-3.3-2.6-3.3-5c-2.7-0.5-5.1-1.5-7.1-3.4c-2.4-2.2-2.8-4.2-1.6-7.3
				c-2.9-1.1-5.2-2.7-4.6-6.4c-3.7-0.9-6.2-3.3-7.8-6.7c-1.6-3.3-1.9-6.7,0-10.1c-2.1-1.3-3.6-2.9-2.9-5.5c0.6-2.1,1.9-3.5,4.3-3.8
				c-1.5-3-2.3-6.2-2.2-9.5c0.1-3,0.9-5.6,4.2-6.8c-0.9-1.7-1.1-3.4-0.7-5.2c0.4-1.8,1.2-3.4,3-4.2c-1.7-6.6,1.9-10.3,10-10.5
				c0.9-6.9,1.7-7.9,6.2-8.3c0.1-3.3,1.1-4.3,5.9-5.4c0.3-4.4,2.8-6.6,7.6-6.7c1,0,2,0.1,3.1,0.2c1.5-3.6,4.4-4.9,7.6-3.7
				c3.3-2.3,6.6-1.6,10.1-0.4c1.4-2.3,3.4-3.9,6.2-4.4c2.7-0.4,5.2,0.4,7.6,1.5c1.4-1.8,2.9-2.7,6.2,0.1c5.8-2.1,8.2-1.5,11.5,2.7
				c3.4-0.8,6.5-0.7,9,2c0.2,0.2,0.8,0.2,1.2,0.2c2.4,0,4.8,0.3,6.8,1.7c0.3,0.2,0.9,0.2,1.3,0.1c2.5-0.4,4.9-0.1,7.1,1.2
				c2,1.1,3.3,2.8,2.8,5.1c1.2,0.7,2.6,1.2,3.3,2.1c0.7,0.9,0.6,2.4,0.9,3.8c3.2,0.9,3.6,1.5,4,7.1c3.6-0.4,7.2-0.2,9.6,3
				c2.4,3.1,2.6,6.5,1.2,10.2c1.9,0.4,3.4,1.2,4.1,3.1c0.7,1.8,0.4,3.4-0.7,5.1c3.5,0.9,5.9,2.9,6.4,6.6c0.4,3.3-0.5,6.4-2.3,9.3
				c2.4,0.4,3.8,1.9,4.3,4.1c0.5,2.5-1,4-2.9,5.2c2.7,7.7-0.2,13.9-7.9,16.9C139.5,104.5,137.4,106.3,134.4,107.3z M46.2,97.1
				c7.5-0.2,14.5,0.5,21.4,2c6.1,1.4,12.2,0.7,18.3-0.8c3.3-0.8,6.8-0.7,10.3-1c2.4-0.2,4.8-0.2,7.2-0.3c-1.5-2.2-2.7-4.1-2-6.6
				C98.8,90,98.2,89,98.6,86c-4.1,0-6.1-2.5-7.1-6.2c-3.1,0.3-5.6-1.1-7.7-3.3c-2.5,2.6-5.6,3-8.8,3c-3.2,0-6.3-0.4-8.7-3
				c-2.1,2.3-4.6,3.5-7.7,3.3c-1,3.7-3,6.2-7.1,6.2c0.3,3.1-0.3,4-2.9,4.4C49.2,93,48.4,95.1,46.2,97.1z M54.6,120.5
				c0,0,0-0.1,0-0.1c1.1-0.1,2.2-0.1,3.4-0.2c4.2-0.3,7.2-2.3,8.6-6.3c0.8-2.3,1.4-4.7,1.7-7.1c0.4-3.4-0.8-5.1-4.1-5.9
				c-6.3-1.5-12.7-2.1-19.1-1.5c-3,0.3-4.9,2-5,4.9c-0.1,2.8,0.2,5.7,0.9,8.5c1.1,4.4,4.2,6.8,8.7,7.3
				C51.3,120.4,52.9,120.4,54.6,120.5z M100.7,99.3c-2.8,0.1-5.4,0.2-8,0.5c-2.7,0.3-5.3,0.7-7.9,1.4c-2.7,0.7-4,2.4-3.6,5.2
				c0.4,2.8,1.1,5.6,2,8.3c1.1,3.1,3.6,5.1,6.9,5.4c3.5,0.3,7,0.4,10.5,0c3.9-0.4,6.7-2.8,7.8-6.6c0.7-2.4,1.1-5,1.2-7.6
				c0.1-3.3-1.5-5.5-4.4-6.3C103.7,99.2,102.1,99.4,100.7,99.3z"/>
		</g>
	</g>
</g>
</svg>
